{
	"info": {
		"_postman_id": "33b92541-934f-419b-9051-c5378d1f37f4",
		"name": "services",
		"schema": "https://schema.getpostman.com/json/collection/v2.1.0/collection.json"
	},
	"item": [
		{
			"name": "First Service",
			"request": {
				"method": "GET",
				"header": [],
				"body": {
					"mode": "raw",
					"raw": ""
				},
				"url": {
					"raw": "http://localhost:56609/api/Default/1",
					"protocol": "http",
					"host": [
						"localhost"
					],
					"port": "56609",
					"path": [
						"api",
						"Default",
						"1"
					]
				}
			},
			"response": []
		},
		{
			"name": "Second Service",
			"request": {
				"method": "GET",
				"header": [],
				"body": {
					"mode": "raw",
					"raw": ""
				},
				"url": {
					"raw": "http://localhost:57593/api/Default/1",
					"protocol": "http",
					"host": [
						"localhost"
					],
					"port": "57593",
					"path": [
						"api",
						"Default",
						"1"
					]
				}
			},
			"response": []
		},
		{
			"name": "Third Service",
			"request": {
				"method": "GET",
				"header": [],
				"body": {
					"mode": "raw",
					"raw": ""
				},
				"url": {
					"raw": "http://localhost:57939/api/Default/12",
					"protocol": "http",
					"host": [
						"localhost"
					],
					"port": "57939",
					"path": [
						"api",
						"Default",
						"12"
					]
				}
			},
			"response": []
		},
		{
			"name": "REST Service",
			"request": {
				"method": "GET",
				"header": [],
				"body": {
					"mode": "raw",
					"raw": ""
				},
				"url": {
					"raw": "http://localhost:58153/api/Default/5",
					"protocol": "http",
					"host": [
						"localhost"
					],
					"port": "58153",
					"path": [
						"api",
						"Default",
						"5"
					]
				}
			},
			"response": []
		}
	]
}